<?xml version="1.0" standalone="no"?>
<!DOCTYPE svg PUBLIC "-//W3C//DTD SVG 20010904//EN"
 "http://www.w3.org/TR/2001/REC-SVG-20010904/DTD/svg10.dtd">
<svg version="1.0" xmlns="http://www.w3.org/2000/svg"
 width="70.000000pt" height="70.000000pt" viewBox="0 0 70.000000 70.000000"
 preserveAspectRatio="xMidYMid meet">
<metadata>
Created by potrace 1.11, written by Peter Selinger 2001-2013
</metadata>
<g transform="translate(0.000000,70.000000) scale(0.100000,-0.100000)"
fill="#000000" stroke="none">
<path d="M0 350 l0 -350 350 0 350 0 0 350 0 350 -350 0 -350 0 0 -350z m358
243 c2 -8 -5 -13 -17 -13 -15 0 -21 -6 -21 -24 0 -35 41 -230 50 -240 4 -4 22
3 40 15 33 25 78 29 190 16 54 -6 60 -18 21 -46 -35 -25 -68 -26 -131 -4 -40
14 -52 15 -79 4 -17 -8 -31 -16 -31 -20 0 -4 28 -7 63 -8 90 -1 151 -9 155
-21 3 -11 -40 -44 -72 -56 -11 -4 -41 2 -72 15 -30 13 -56 20 -59 18 -2 -3 0
-22 6 -42 8 -30 15 -37 34 -37 18 0 25 -5 25 -20 0 -19 -7 -20 -100 -20 -94 0
-100 1 -100 20 0 14 6 20 18 18 21 -4 21 0 -12 127 -13 55 -28 124 -32 153 -4
29 -10 54 -14 57 -10 6 -47 -63 -70 -131 -27 -76 -26 -134 1 -157 14 -13 19
-27 17 -50 -3 -32 -3 -32 -67 -35 l-63 -3 4 64 c3 55 14 84 75 208 39 79 74
153 77 163 8 22 -8 36 -41 36 -14 0 -23 6 -23 15 0 13 17 15 112 13 78 -2 113
-7 116 -15z"/>
</g>
</svg>
